{ "data": { "productId": "ad22b1f0967349e8a5d586afe7f0d845", "brand": "CBA", "isTailored": false }}, "links": { "self": "/cds-au/v1/banking/products?page-size=2", "first": "/cds-au/v1/banking/products?page-size=2&page=1", "next": "/cds-au/v1/banking/products?page-size=2&page=2", "last": "/cds-au/v1/banking/products?page-size=2&page=14" }, "meta": { "totalRecords": 28, "totalPages": 14 }}
