{ "data": { "products": [ { "productId": "ad22b1f0967349e8a5d586afe7f0d845", "brand": "CBA", "isTailored": false }, { "productId": "7aff9e0e85e6450eb052d4ff2e953223", "effectiveFrom": "2011-05-10T04:00:00Z", "effectiveTo": "9999-12-30T13:00:00Z" } ] }, "links": { "self": "/cds-au/v1/banking/products?page-size=2", "first": "/cds-au/v1/banking/products?page-size=2&page=1", "next": "/cds-au/v1/banking/products?page-size=2&page=2", "last": "/cds-au/v1/banking/products?page-size=2&page=14" }, "meta": { "totalRecords": 28, "totalPages": 14 }}
